<?xml version="1.0" encoding="utf-8"?>
<!-- Generator: Adobe Illustrator 20.1.0, SVG Export Plug-In . SVG Version: 6.00 Build 0)  -->
<svg version="1.1" id="Capa_1" xmlns="http://www.w3.org/2000/svg" xmlns:xlink="http://www.w3.org/1999/xlink" x="0px" y="0px"
	 viewBox="0 0 366.1 515" style="enable-background:new 0 0 366.1 515;" xml:space="preserve">
<style type="text/css">
	.st0{fill:#1CAED6;}
</style>
<g>
	<g>
		<path class="st0" d="M241.7,85.8c-24.6-35.3-45.8-65.8-51-80.4c-1.1-3.2-4.1-5.4-7.6-5.4c-3.1,0.1-6.5,2-7.7,5.2
			C170.2,19,150,48,126.7,81.5C73.2,158.3,0,263.5,0,331.9c0,100.9,82.1,183,183,183s183-82.1,183-183
			C366.1,264.6,294.2,161.3,241.7,85.8z"/>
	</g>
</g>
</svg>
